{"playlists": {"href": "https://api.spotify.com/v1/search?query=billie&type=playlist&offset=0&limit=20", "items": [{"collaborative": false, "description": "Enter WHEN WE ALL FALL ASLEEP, WHERE DO WE GO?", "external_urls": {"spotify": "https://open.spotify.com/playlist/37i9dQZF1DXcf5pLcPbTwK"}, "href": "https://api.spotify.com/v1/playlists/37i9dQZF1DXcf5pLcPbTwK", "id": "37i9dQZF1DXcf5pLcPbTwK", "images": [{"height": null, "url": "https://i.scdn.co/image/ab67706f00000003327728ac9cde9d5d4d11e868", "width": null}], "name": "Billie Eilish Experience", "owner": {"display_name": "Spotify", "external_urls": {"spotify": "https://open.spotify.com/user/spotify"}, "href": "https://api.spotify.com/v1/users/spotify", "id": "spotify", "type": "user", "uri": "spotify:user:spotify"}, "primary_color": null, "public": null, "snapshot_id": "MTU5NjIwMDA3MCwwMDAwMDAxNDAwMDAwMTczYTRmMDJjNGYwMDAwMDE3MGE0ZjVkYmNj", "tracks": {"href": "https://api.spotify.com/v1/playlists/37i9dQZF1DXcf5pLcPbTwK/tracks", "total": 20}, "type": "playlist", "uri": "spotify:playlist:37i9dQZF1DXcf5pLcPbTwK"}, {"collaborative": false, "description": "", "external_urls": {"spotify": "https://open.spotify.com/playlist/0fZm7ygIaFLpTX7AEd38WT"}, "href": "https://api.spotify.com/v1/playlists/0fZm7ygIaFLpTX7AEd38WT", "id": "0fZm7ygIaFLpTX7AEd38WT", "images": [{"height": null, "url": "https://i.scdn.co/image/ab67706c0000bebb758381dfc6481dcf3cd32399", "width": null}], "name": "Billie Eilish: Complete Collection", "owner": {"display_name": "Billie Eilish", "external_urls": {"spotify": "https://open.spotify.com/user/billieeilish"}, "href": "https://api.spotify.com/v1/users/billieeilish", "id": "billieeilish", "type": "user", "uri": "spotify:user:billieeilish"}, "primary_color": null, "public": null, "snapshot_id": "MTA0LDI1ZmQ2ZGFkMGY5ZjczNGRkMzVhOWI1MGJkZThjZmJiNTFkNTk3NGU=", "tracks": {"href": "https://api.spotify.com/v1/playlists/0fZm7ygIaFLpTX7AEd38WT/tracks", "total": 43}, "type": "playlist", "uri": "spotify:playlist:0fZm7ygIaFLpTX7AEd38WT"}, {"collaborative": false, "description": "This playlist doesn&#x27;t include the remixes. Fell free to play it as it is or shuffle play it. Cover artist: I don&#x27;t quite remember, I found it on pinterest.", "external_urls": {"spotify": "https://open.spotify.com/playlist/0U9Tm9A9bzMbOQGSzf7OSG"}, "href": "https://api.spotify.com/v1/playlists/0U9Tm9A9bzMbOQGSzf7OSG", "id": "0U9Tm9A9bzMbOQGSzf7OSG", "images": [{"height": null, "url": "https://i.scdn.co/image/ab67706c0000bebbab38c25bd5c2c800a9438de4", "width": null}], "name": " Billie Eilish - All Songs", "owner": {"display_name": "Tushypounder", "external_urls": {"spotify": "https://open.spotify.com/user/8replwrt88yjwhbcilaroitaw"}, "href": "https://api.spotify.com/v1/users/8replwrt88yjwhbcilaroitaw", "id": "8replwrt88yjwhbcilaroitaw", "type": "user", "uri": "spotify:user:8replwrt88yjwhbcilaroitaw"}, "primary_color": null, "public": null, "snapshot_id": "NTksODYxOGE0NWRmNjU2NmVhODQ5ZDM3MTRkMjA0YTdiZmZlN2EzZGY0Yg==", "tracks": {"href": "https://api.spotify.com/v1/playlists/0U9Tm9A9bzMbOQGSzf7OSG/tracks", "total": 33}, "type": "playlist", "uri": "spotify:playlist:0U9Tm9A9bzMbOQGSzf7OSG"}, {"collaborative": false, "description": "Latest track \"my future\"  and other hits", "external_urls": {"spotify": "https://open.spotify.com/playlist/37i9dQZF1DX6cg4h2PoN9y"}, "href": "https://api.spotify.com/v1/playlists/37i9dQZF1DX6cg4h2PoN9y", "id": "37i9dQZF1DX6cg4h2PoN9y", "images": [{"height": null, "url": "https://i.scdn.co/image/ab67706f000000037b14553557865ed80ab4cab3", "width": null}], "name": "This Is Billie Eilish", "owner": {"display_name": "Spotify", "external_urls": {"spotify": "https://open.spotify.com/user/spotify"}, "href": "https://api.spotify.com/v1/users/spotify", "id": "spotify", "type": "user", "uri": "spotify:user:spotify"}, "primary_color": null, "public": null, "snapshot_id": "MTU5NjE1MjgzMCwwMDAwMDAyODAwMDAwMTczYTIxZjU4ZTkwMDAwMDE3M2EyMWYyYmJh", "tracks": {"href": "https://api.spotify.com/v1/playlists/37i9dQZF1DX6cg4h2PoN9y/tracks", "total": 40}, "type": "playlist", "uri": "spotify:playlist:37i9dQZF1DX6cg4h2PoN9y"}, {"collaborative": false, "description": "", "external_urls": {"spotify": "https://open.spotify.com/playlist/7zREgeGZ1MuoqbFPcz7q96"}, "href": "https://api.spotify.com/v1/playlists/7zREgeGZ1MuoqbFPcz7q96", "id": "7zREgeGZ1MuoqbFPcz7q96", "images": [{"height": null, "url": "https://i.scdn.co/image/ab67706c0000bebbbd826b2620fca1bdbe79603a", "width": null}], "name": "Billie Eilish - Sad songs", "owner": {"display_name": "Jonathan Coast", "external_urls": {"spotify": "https://open.spotify.com/user/jonathawn"}, "href": "https://api.spotify.com/v1/users/jonathawn", "id": "jonathawn", "type": "user", "uri": "spotify:user:jonathawn"}, "primary_color": null, "public": null, "snapshot_id": "NTksZjA4M2RlMTQ0ZjcyMzQ1ZTdmMjc5NTQyMGJjNjM0ODIxMzhiMjljMw==", "tracks": {"href": "https://api.spotify.com/v1/playlists/7zREgeGZ1MuoqbFPcz7q96/tracks", "total": 19}, "type": "playlist", "uri": "spotify:playlist:7zREgeGZ1MuoqbFPcz7q96"}, {"collaborative": false, "description": "", "external_urls": {"spotify": "https://open.spotify.com/playlist/5c3PSb9IepxZqXCNZqMFMp"}, "href": "https://api.spotify.com/v1/playlists/5c3PSb9IepxZqXCNZqMFMp", "id": "5c3PSb9IepxZqXCNZqMFMp", "images": [{"height": 640, "url": "https://mosaic.scdn.co/640/ab67616d0000b2738a3f0a3ca7929dea23cd274cab67616d0000b273a9f6c04ba168640b48aa5795ab67616d0000b273b2eb2ea69b4578687df40960ab67616d0000b273fae80fc6c7f60e75cfc519c7", "width": 640}, {"height": 300, "url": "https://mosaic.scdn.co/300/ab67616d0000b2738a3f0a3ca7929dea23cd274cab67616d0000b273a9f6c04ba168640b48aa5795ab67616d0000b273b2eb2ea69b4578687df40960ab67616d0000b273fae80fc6c7f60e75cfc519c7", "width": 300}, {"height": 60, "url": "https://mosaic.scdn.co/60/ab67616d0000b2738a3f0a3ca7929dea23cd274cab67616d0000b273a9f6c04ba168640b48aa5795ab67616d0000b273b2eb2ea69b4578687df40960ab67616d0000b273fae80fc6c7f60e75cfc519c7", "width": 60}], "name": "Billie Eilish Playlist", "owner": {"display_name": "lozzer_01", "external_urls": {"spotify": "https://open.spotify.com/user/lozzer_01"}, "href": "https://api.spotify.com/v1/users/lozzer_01", "id": "lozzer_01", "type": "user", "uri": "spotify:user:lozzer_01"}, "primary_color": null, "public": null, "snapshot_id": "MzEsOTVhN2U0ZjE3MmE4YmQzNzI2ODJiN2UwNzAzYzJiMGE3MWYzYWUzMA==", "tracks": {"href": "https://api.spotify.com/v1/playlists/5c3PSb9IepxZqXCNZqMFMp/tracks", "total": 35}, "type": "playlist", "uri": "spotify:playlist:5c3PSb9IepxZqXCNZqMFMp"}, {"collaborative": false, "description": "wish u were gay 1 !!!!!!! 2 bad guy 3 xanny  4 you should see me in a crown  3:00 5 all the good girls go to hell 6 wish you were gay  7 when the party&#x27;s over  3:16 8 8 9 my strange addiction  10 bury a friend  3:13 11 ilomilo 12 listen before i go 13 i love you 14 goodbye 29.03", "external_urls": {"spotify": "https://open.spotify.com/playlist/0VX5088TOHeM9vHO6ZXMGE"}, "href": "https://api.spotify.com/v1/playlists/0VX5088TOHeM9vHO6ZXMGE", "id": "0VX5088TOHeM9vHO6ZXMGE", "images": [{"height": null, "url": "https://i.scdn.co/image/ab67706c0000bebb09e319274b445b97bdc24b2f", "width": null}], "name": "Billie Eilish - Wish you were gay", "owner": {"display_name": "pinkpumelo", "external_urls": {"spotify": "https://open.spotify.com/user/jmkoial3eag8pnz5xr0sile61"}, "href": "https://api.spotify.com/v1/users/jmkoial3eag8pnz5xr0sile61", "id": "jmkoial3eag8pnz5xr0sile61", "type": "user", "uri": "spotify:user:jmkoial3eag8pnz5xr0sile61"}, "primary_color": null, "public": null, "snapshot_id": "MTQsYzhlYmQzNDQ3Y2Q4MWM2YzVlZWJiMTVkMjJiODJiY2UwODNkMDA4Nw==", "tracks": {"href": "https://api.spotify.com/v1/playlists/0VX5088TOHeM9vHO6ZXMGE/tracks", "total": 15}, "type": "playlist", "uri": "spotify:playlist:0VX5088TOHeM9vHO6ZXMGE"}, {"collaborative": false, "description": "", "external_urls": {"spotify": "https://open.spotify.com/playlist/0zVAj1UGfE1UjtZNdv6Yg4"}, "href": "https://api.spotify.com/v1/playlists/0zVAj1UGfE1UjtZNdv6Yg4", "id": "0zVAj1UGfE1UjtZNdv6Yg4", "images": [{"height": 640, "url": "https://mosaic.scdn.co/640/ab67616d0000b27348a98a5a97b2cc7963016888ab67616d0000b27350a3147b4edd7701a876c6ceab67616d0000b273a9f6c04ba168640b48aa5795ab67616d0000b273fae80fc6c7f60e75cfc519c7", "width": 640}, {"height": 300, "url": "https://mosaic.scdn.co/300/ab67616d0000b27348a98a5a97b2cc7963016888ab67616d0000b27350a3147b4edd7701a876c6ceab67616d0000b273a9f6c04ba168640b48aa5795ab67616d0000b273fae80fc6c7f60e75cfc519c7", "width": 300}, {"height": 60, "url": "https://mosaic.scdn.co/60/ab67616d0000b27348a98a5a97b2cc7963016888ab67616d0000b27350a3147b4edd7701a876c6ceab67616d0000b273a9f6c04ba168640b48aa5795ab67616d0000b273fae80fc6c7f60e75cfc519c7", "width": 60}], "name": "Billie eilish for sleeping", "owner": {"display_name": "Lauty Cordoba", "external_urls": {"spotify": "https://open.spotify.com/user/11129245919"}, "href": "https://api.spotify.com/v1/users/11129245919", "id": "11129245919", "type": "user", "uri": "spotify:user:11129245919"}, "primary_color": null, "public": null, "snapshot_id": "MTMsM2UxZDAyMWY4NDkwYTRiNGU0YTAwNDQzYWRlOTU4OTk0NmY0YTY0Nw==", "tracks": {"href": "https://api.spotify.com/v1/playlists/0zVAj1UGfE1UjtZNdv6Yg4/tracks", "total": 11}, "type": "playlist", "uri": "spotify:playlist:0zVAj1UGfE1UjtZNdv6Yg4"}, {"collaborative": false, "description": " A playlist made for Billie&#x27;s Ears", "external_urls": {"spotify": "https://open.spotify.com/playlist/4QbFvZeMZa2QcczgVVWD18"}, "href": "https://api.spotify.com/v1/playlists/4QbFvZeMZa2QcczgVVWD18", "id": "4QbFvZeMZa2QcczgVVWD18", "images": [{"height": null, "url": "https://i.scdn.co/image/ab67706c0000bebb6974bb7b9b7b887cca6fb3b4", "width": null}], "name": "Billie Eilish Bangers", "owner": {"display_name": "CarolJ", "external_urls": {"spotify": "https://open.spotify.com/user/urgtucly5c9pqgyaiwkv9suvz"}, "href": "https://api.spotify.com/v1/users/urgtucly5c9pqgyaiwkv9suvz", "id": "urgtucly5c9pqgyaiwkv9suvz", "type": "user", "uri": "spotify:user:urgtucly5c9pqgyaiwkv9suvz"}, "primary_color": null, "public": null, "snapshot_id": "MTk3LDVkNDljMTdhYWFiMDhlYzBkMmE0NDUzNTdlMjhkMGI2N2EyZDY0NmU=", "tracks": {"href": "https://api.spotify.com/v1/playlists/4QbFvZeMZa2QcczgVVWD18/tracks", "total": 60}, "type": "playlist", "uri": "spotify:playlist:4QbFvZeMZa2QcczgVVWD18"}, {"collaborative": false, "description": "Best songs: six feet under, bored and bellyache&#x2F;&#x2F;also I count &#x27;&amp;burn&#x27; as a remix cause its &#x27;watch&#x27; but with Vince Staples. The remixes suck that&#x27;s why I didn&#x27;t Include them.  ", "external_urls": {"spotify": "https://open.spotify.com/playlist/6onHmMKCXp71Y6LSimWIlQ"}, "href": "https://api.spotify.com/v1/playlists/6onHmMKCXp71Y6LSimWIlQ", "id": "6onHmMKCXp71Y6LSimWIlQ", "images": [{"height": null, "url": "https://i.scdn.co/image/ab67706c0000bebbccac87cd4cbe7c7b16126882", "width": null}], "name": "Billie Elish all songs (no remixes or repeats)", "owner": {"display_name": "luciamusic19", "external_urls": {"spotify": "https://open.spotify.com/user/luciamusic19"}, "href": "https://api.spotify.com/v1/users/luciamusic19", "id": "luciamusic19", "type": "user", "uri": "spotify:user:luciamusic19"}, "primary_color": null, "public": null, "snapshot_id": "NTksYmQ0NTE0NmQ1ZTU4ODE5NTczOWIxYTJhOWQ3MDgyMDFmNzRmNzFkYw==", "tracks": {"href": "https://api.spotify.com/v1/playlists/6onHmMKCXp71Y6LSimWIlQ/tracks", "total": 30}, "type": "playlist", "uri": "spotify:playlist:6onHmMKCXp71Y6LSimWIlQ"}, {"collaborative": false, "description": "Complete Spotify discography in release order, sans remixes | latest: my future | sunny | no time to die", "external_urls": {"spotify": "https://open.spotify.com/playlist/4kp8lOqbIMyDDnQH9VqpVp"}, "href": "https://api.spotify.com/v1/playlists/4kp8lOqbIMyDDnQH9VqpVp", "id": "4kp8lOqbIMyDDnQH9VqpVp", "images": [{"height": null, "url": "https://i.scdn.co/image/ab67706c0000bebbf1e05f00fa37c62afc3ddfe9", "width": null}], "name": "Billie Eilish All Songs", "owner": {"display_name": "statr", "external_urls": {"spotify": "https://open.spotify.com/user/statr"}, "href": "https://api.spotify.com/v1/users/statr", "id": "statr", "type": "user", "uri": "spotify:user:statr"}, "primary_color": null, "public": null, "snapshot_id": "MTk0LGE0N2JjMzFiMjU5NWY5MmI0ZTgxMjFiNDNkZDhmYWJmM2NmYmQzYjQ=", "tracks": {"href": "https://api.spotify.com/v1/playlists/4kp8lOqbIMyDDnQH9VqpVp/tracks", "total": 90}, "type": "playlist", "uri": "spotify:playlist:4kp8lOqbIMyDDnQH9VqpVp"}, {"collaborative": false, "description": "", "external_urls": {"spotify": "https://open.spotify.com/playlist/12HrejFeUr88QSwXI36s24"}, "href": "https://api.spotify.com/v1/playlists/12HrejFeUr88QSwXI36s24", "id": "12HrejFeUr88QSwXI36s24", "images": [{"height": 640, "url": "https://mosaic.scdn.co/640/ab67616d0000b273183f9dea5ccdf2a7eee97393ab67616d0000b27350a3147b4edd7701a876c6ceab67616d0000b2735945e0dce1af45d640cf06eaab67616d0000b273f2248cf6dad1d6c062587249", "width": 640}, {"height": 300, "url": "https://mosaic.scdn.co/300/ab67616d0000b273183f9dea5ccdf2a7eee97393ab67616d0000b27350a3147b4edd7701a876c6ceab67616d0000b2735945e0dce1af45d640cf06eaab67616d0000b273f2248cf6dad1d6c062587249", "width": 300}, {"height": 60, "url": "https://mosaic.scdn.co/60/ab67616d0000b273183f9dea5ccdf2a7eee97393ab67616d0000b27350a3147b4edd7701a876c6ceab67616d0000b2735945e0dce1af45d640cf06eaab67616d0000b273f2248cf6dad1d6c062587249", "width": 60}], "name": "Billie Eilish + Melanie Martinez", "owner": {"display_name": "lisagullbergs", "external_urls": {"spotify": "https://open.spotify.com/user/lisagullbergs"}, "href": "https://api.spotify.com/v1/users/lisagullbergs", "id": "lisagullbergs", "type": "user", "uri": "spotify:user:lisagullbergs"}, "primary_color": null, "public": null, "snapshot_id": "MTA2LDMyNjg2MWIyYjMwODc5ZWVkZDdlMDgxMjJiYjQ0M2Q5OTcwNjlmMWU=", "tracks": {"href": "https://api.spotify.com/v1/playlists/12HrejFeUr88QSwXI36s24/tracks", "total": 65}, "type": "playlist", "uri": "spotify:playlist:12HrejFeUr88QSwXI36s24"}, {"collaborative": false, "description": "", "external_urls": {"spotify": "https://open.spotify.com/playlist/2S9TrWykBnBQulhMqkqaht"}, "href": "https://api.spotify.com/v1/playlists/2S9TrWykBnBQulhMqkqaht", "id": "2S9TrWykBnBQulhMqkqaht", "images": [{"height": 640, "url": "https://mosaic.scdn.co/640/ab67616d0000b2732dc817144c8081281f77508dab67616d0000b2738fbc40da547bc157e8956ceaab67616d0000b273b01e0794e65a909958897fa2ab67616d0000b273b16b427371c5fdd76f1b0ee1", "width": 640}, {"height": 300, "url": "https://mosaic.scdn.co/300/ab67616d0000b2732dc817144c8081281f77508dab67616d0000b2738fbc40da547bc157e8956ceaab67616d0000b273b01e0794e65a909958897fa2ab67616d0000b273b16b427371c5fdd76f1b0ee1", "width": 300}, {"height": 60, "url": "https://mosaic.scdn.co/60/ab67616d0000b2732dc817144c8081281f77508dab67616d0000b2738fbc40da547bc157e8956ceaab67616d0000b273b01e0794e65a909958897fa2ab67616d0000b273b16b427371c5fdd76f1b0ee1", "width": 60}], "name": "Billie Eilish Remixes", "owner": {"display_name": "fpcmwi66ij4ocf28envxa8qgq", "external_urls": {"spotify": "https://open.spotify.com/user/fpcmwi66ij4ocf28envxa8qgq"}, "href": "https://api.spotify.com/v1/users/fpcmwi66ij4ocf28envxa8qgq", "id": "fpcmwi66ij4ocf28envxa8qgq", "type": "user", "uri": "spotify:user:fpcmwi66ij4ocf28envxa8qgq"}, "primary_color": null, "public": null, "snapshot_id": "MTUsYjIyMjMwOTkwOTlhNTg2MGVmODZjMDhjMDgzNDA1NThkN2FlYzY5Yg==", "tracks": {"href": "https://api.spotify.com/v1/playlists/2S9TrWykBnBQulhMqkqaht/tracks", "total": 10}, "type": "playlist", "uri": "spotify:playlist:2S9TrWykBnBQulhMqkqaht"}, {"collaborative": false, "description": "", "external_urls": {"spotify": "https://open.spotify.com/playlist/4Tl90yKNANz13l22ftlGet"}, "href": "https://api.spotify.com/v1/playlists/4Tl90yKNANz13l22ftlGet", "id": "4Tl90yKNANz13l22ftlGet", "images": [{"height": 640, "url": "https://mosaic.scdn.co/640/ab67616d0000b27308862f843ea27f44f8e8cbd8ab67616d0000b2731a4a5adc270c98e5ed329a18ab67616d0000b273505497aaba2bb65c3ce6add9ab67616d0000b273d315ce32ba3637c4fa9b5dab", "width": 640}, {"height": 300, "url": "https://mosaic.scdn.co/300/ab67616d0000b27308862f843ea27f44f8e8cbd8ab67616d0000b2731a4a5adc270c98e5ed329a18ab67616d0000b273505497aaba2bb65c3ce6add9ab67616d0000b273d315ce32ba3637c4fa9b5dab", "width": 300}, {"height": 60, "url": "https://mosaic.scdn.co/60/ab67616d0000b27308862f843ea27f44f8e8cbd8ab67616d0000b2731a4a5adc270c98e5ed329a18ab67616d0000b273505497aaba2bb65c3ce6add9ab67616d0000b273d315ce32ba3637c4fa9b5dab", "width": 60}], "name": "Billie Eilish Radio", "owner": {"display_name": "Camryn McNeill", "external_urls": {"spotify": "https://open.spotify.com/user/22mtuj4p3bv73ky2gwgynkccy"}, "href": "https://api.spotify.com/v1/users/22mtuj4p3bv73ky2gwgynkccy", "id": "22mtuj4p3bv73ky2gwgynkccy", "type": "user", "uri": "spotify:user:22mtuj4p3bv73ky2gwgynkccy"}, "primary_color": null, "public": null, "snapshot_id": "NDYsNzNlYWIzZmYyYzllNmMyMTRhM2JiMjg1NWE1NDRkODk1ODAzNWY0Yg==", "tracks": {"href": "https://api.spotify.com/v1/playlists/4Tl90yKNANz13l22ftlGet/tracks", "total": 241}, "type": "playlist", "uri": "spotify:playlist:4Tl90yKNANz13l22ftlGet"}, {"collaborative": false, "description": "", "external_urls": {"spotify": "https://open.spotify.com/playlist/6qN8hsBy0OQNiTkC1RxTPZ"}, "href": "https://api.spotify.com/v1/playlists/6qN8hsBy0OQNiTkC1RxTPZ", "id": "6qN8hsBy0OQNiTkC1RxTPZ", "images": [{"height": 640, "url": "https://mosaic.scdn.co/640/ab67616d0000b2733ce730c58a503c27c565ce3dab67616d0000b27348a98a5a97b2cc7963016888ab67616d0000b27350a3147b4edd7701a876c6ceab67616d0000b27373f85e8b4338d2aa07f59f3a", "width": 640}, {"height": 300, "url": "https://mosaic.scdn.co/300/ab67616d0000b2733ce730c58a503c27c565ce3dab67616d0000b27348a98a5a97b2cc7963016888ab67616d0000b27350a3147b4edd7701a876c6ceab67616d0000b27373f85e8b4338d2aa07f59f3a", "width": 300}, {"height": 60, "url": "https://mosaic.scdn.co/60/ab67616d0000b2733ce730c58a503c27c565ce3dab67616d0000b27348a98a5a97b2cc7963016888ab67616d0000b27350a3147b4edd7701a876c6ceab67616d0000b27373f85e8b4338d2aa07f59f3a", "width": 60}], "name": "Billie Ellish", "owner": {"display_name": "Isabel Garcia", "external_urls": {"spotify": "https://open.spotify.com/user/littleizzie9"}, "href": "https://api.spotify.com/v1/users/littleizzie9", "id": "littleizzie9", "type": "user", "uri": "spotify:user:littleizzie9"}, "primary_color": null, "public": null, "snapshot_id": "MTU1LDc0YmU3MGU1OTlkZmU0MzhkZmViMzNkYTE0ODhlYzQ0NmMxZmM3ODY=", "tracks": {"href": "https://api.spotify.com/v1/playlists/6qN8hsBy0OQNiTkC1RxTPZ/tracks", "total": 36}, "type": "playlist", "uri": "spotify:playlist:6qN8hsBy0OQNiTkC1RxTPZ"}, {"collaborative": false, "description": "", "external_urls": {"spotify": "https://open.spotify.com/playlist/778g4GA1GiHrpnoz2nURR3"}, "href": "https://api.spotify.com/v1/playlists/778g4GA1GiHrpnoz2nURR3", "id": "778g4GA1GiHrpnoz2nURR3", "images": [{"height": null, "url": "https://i.scdn.co/image/ab67706c0000bebb3a071460d30ba1d03ec057f1", "width": null}], "name": "Billie Eillish// i could lie; say i like it like that", "owner": {"display_name": "Megan Beadle", "external_urls": {"spotify": "https://open.spotify.com/user/11126742483"}, "href": "https://api.spotify.com/v1/users/11126742483", "id": "11126742483", "type": "user", "uri": "spotify:user:11126742483"}, "primary_color": null, "public": null, "snapshot_id": "NDMsNzNiZmQ4Njk1MDY3ODllZTcwMzhiMDQwOThhMDY5MWNlMDE2MTk2OQ==", "tracks": {"href": "https://api.spotify.com/v1/playlists/778g4GA1GiHrpnoz2nURR3/tracks", "total": 24}, "type": "playlist", "uri": "spotify:playlist:778g4GA1GiHrpnoz2nURR3"}, {"collaborative": false, "description": "my fucking icon", "external_urls": {"spotify": "https://open.spotify.com/playlist/0SHHKnMosmQeX62wnt3hGG"}, "href": "https://api.spotify.com/v1/playlists/0SHHKnMosmQeX62wnt3hGG", "id": "0SHHKnMosmQeX62wnt3hGG", "images": [{"height": null, "url": "https://i.scdn.co/image/ab67706c0000bebbfa3eee272b883b9d7ee51c00", "width": null}], "name": "billie eilish (no remix)", "owner": {"display_name": "ishyajalla16.21", "external_urls": {"spotify": "https://open.spotify.com/user/ishyajalla16.21"}, "href": "https://api.spotify.com/v1/users/ishyajalla16.21", "id": "ishyajalla16.21", "type": "user", "uri": "spotify:user:ishyajalla16.21"}, "primary_color": null, "public": null, "snapshot_id": "NzAsMzI2ZmU1MGExYzgyYWNjZDUwMjEyNDZmNThmZWU0MzdlYTUyZGFmNQ==", "tracks": {"href": "https://api.spotify.com/v1/playlists/0SHHKnMosmQeX62wnt3hGG/tracks", "total": 31}, "type": "playlist", "uri": "spotify:playlist:0SHHKnMosmQeX62wnt3hGG"}, {"collaborative": false, "description": "", "external_urls": {"spotify": "https://open.spotify.com/playlist/7He2IiT0bSc1EpSIqu0Jh6"}, "href": "https://api.spotify.com/v1/playlists/7He2IiT0bSc1EpSIqu0Jh6", "id": "7He2IiT0bSc1EpSIqu0Jh6", "images": [{"height": null, "url": "https://i.scdn.co/image/ab67706c0000bebbd54e87df52bd79d167f584cc", "width": null}], "name": "billie eilish - slowed down", "owner": {"display_name": "Malene Austrheim", "external_urls": {"spotify": "https://open.spotify.com/user/shy2g1axgzubyov2rma6s40zr"}, "href": "https://api.spotify.com/v1/users/shy2g1axgzubyov2rma6s40zr", "id": "shy2g1axgzubyov2rma6s40zr", "type": "user", "uri": "spotify:user:shy2g1axgzubyov2rma6s40zr"}, "primary_color": null, "public": null, "snapshot_id": "NzYsN2Q5OThmOWZlZmZmNmU2ZjQ1ZjBlMGQ2ZjY0YjkyZjgyY2U4YWM5Zg==", "tracks": {"href": "https://api.spotify.com/v1/playlists/7He2IiT0bSc1EpSIqu0Jh6/tracks", "total": 72}, "type": "playlist", "uri": "spotify:playlist:7He2IiT0bSc1EpSIqu0Jh6"}, {"collaborative": false, "description": "", "external_urls": {"spotify": "https://open.spotify.com/playlist/43vndadwFf9WqPnEdJVbEJ"}, "href": "https://api.spotify.com/v1/playlists/43vndadwFf9WqPnEdJVbEJ", "id": "43vndadwFf9WqPnEdJVbEJ", "images": [{"height": 640, "url": "https://mosaic.scdn.co/640/ab67616d0000b2732cafcdd985630d72594ecc49ab67616d0000b2738fe9064bc180e2eeba1bf4b8ab67616d0000b273e0f2af91be409aad81bba98cab67616d0000b273fae80fc6c7f60e75cfc519c7", "width": 640}, {"height": 300, "url": "https://mosaic.scdn.co/300/ab67616d0000b2732cafcdd985630d72594ecc49ab67616d0000b2738fe9064bc180e2eeba1bf4b8ab67616d0000b273e0f2af91be409aad81bba98cab67616d0000b273fae80fc6c7f60e75cfc519c7", "width": 300}, {"height": 60, "url": "https://mosaic.scdn.co/60/ab67616d0000b2732cafcdd985630d72594ecc49ab67616d0000b2738fe9064bc180e2eeba1bf4b8ab67616d0000b273e0f2af91be409aad81bba98cab67616d0000b273fae80fc6c7f60e75cfc519c7", "width": 60}], "name": "Billie Elish ", "owner": {"display_name": "Zoe Meyer", "external_urls": {"spotify": "https://open.spotify.com/user/2255tjphlg53m7jgcciy6hcpa"}, "href": "https://api.spotify.com/v1/users/2255tjphlg53m7jgcciy6hcpa", "id": "2255tjphlg53m7jgcciy6hcpa", "type": "user", "uri": "spotify:user:2255tjphlg53m7jgcciy6hcpa"}, "primary_color": null, "public": null, "snapshot_id": "MTgsZjFiOWZiZmZkODY4ZmFmZDdjOGU4ZWRlMTgwNWZlM2U2MGZhMzE1Yg==", "tracks": {"href": "https://api.spotify.com/v1/playlists/43vndadwFf9WqPnEdJVbEJ/tracks", "total": 16}, "type": "playlist", "uri": "spotify:playlist:43vndadwFf9WqPnEdJVbEJ"}, {"collaborative": false, "description": "instrumentals to billie eilish&#x27;s music", "external_urls": {"spotify": "https://open.spotify.com/playlist/5JYYG1lhhMibkjIrddG6K2"}, "href": "https://api.spotify.com/v1/playlists/5JYYG1lhhMibkjIrddG6K2", "id": "5JYYG1lhhMibkjIrddG6K2", "images": [{"height": null, "url": "https://i.scdn.co/image/ab67706c0000bebb7b97208ee2f070aae24b345d", "width": null}], "name": "billie eilish instrumentals", "owner": {"display_name": "amelia_burke", "external_urls": {"spotify": "https://open.spotify.com/user/amelia_burke"}, "href": "https://api.spotify.com/v1/users/amelia_burke", "id": "amelia_burke", "type": "user", "uri": "spotify:user:amelia_burke"}, "primary_color": null, "public": null, "snapshot_id": "NzEsZDUxYjg0NGVhMTJlOTAyMmQwOGI5YWZhYjczOGMyZjNjM2IzNGJiOQ==", "tracks": {"href": "https://api.spotify.com/v1/playlists/5JYYG1lhhMibkjIrddG6K2/tracks", "total": 38}, "type": "playlist", "uri": "spotify:playlist:5JYYG1lhhMibkjIrddG6K2"}], "limit": 20, "next": "https://api.spotify.com/v1/search?query=billie&type=playlist&offset=20&limit=20", "offset": 0, "previous": null, "total": 113800}}